<svg width="47" height="34" viewBox="0 0 47 34" fill="none" xmlns="http://www.w3.org/2000/svg">
<path d="M33.1442 16.7481C33.3395 16.5528 33.3395 16.2362 33.1442 16.041L29.9623 12.859C29.767 12.6637 29.4504 12.6637 29.2552 12.859C29.0599 13.0543 29.0599 13.3708 29.2552 13.5661L32.0836 16.3945L29.2552 19.223C29.0599 19.4182 29.0599 19.7348 29.2552 19.9301C29.4504 20.1253 29.767 20.1253 29.9623 19.9301L33.1442 16.7481ZM0 16.8945H32.7907V15.8945H0V16.8945Z" fill="white"/>
<circle cx="30.4213" cy="16.5775" r="16.0775" stroke="url(#paint0_linear_417_576)"/>
<defs>
<linearGradient id="paint0_linear_417_576" x1="30.4213" y1="0" x2="30.4213" y2="33.155" gradientUnits="userSpaceOnUse">
<stop stop-color="#00B4F6"/>
<stop offset="0.192708" stop-color="#27577F"/>
<stop offset="0.354167" stop-color="#8482C9"/>
<stop offset="0.567708" stop-color="#B06BB8"/>
<stop offset="0.770833" stop-color="#BA66B4"/>
<stop offset="1" stop-color="#DE53A7"/>
</linearGradient>
</defs>
</svg>
