<svg width="35" height="36" viewBox="0 0 35 36" fill="none" xmlns="http://www.w3.org/2000/svg">
<mask id="mask0_417_638" style="mask-type:luminance" maskUnits="userSpaceOnUse" x="0" y="0" width="35" height="36">
<path d="M0 0.500004H35V35.5H0V0.500004Z" fill="white"/>
</mask>
<g mask="url(#mask0_417_638)">
<path d="M6.09766 7.26172C6.67584 6.6 7.30652 5.98586 7.98314 5.42579" stroke="#D7D7D7" stroke-miterlimit="10" stroke-linecap="round" stroke-linejoin="round"/>
<path d="M2.48828 14.3203C2.89646 12.5455 3.59331 10.8817 4.52635 9.38155" stroke="#D7D7D7" stroke-miterlimit="10" stroke-linecap="round" stroke-linejoin="round"/>
<path d="M7.88264 30.4961C4.33219 27.5084 2.07428 23.0207 2.07428 18.0031C2.07428 17.8125 2.07756 17.6227 2.08399 17.4337" stroke="#D7D7D7" stroke-miterlimit="10" stroke-linecap="round" stroke-linejoin="round"/>
<path d="M26.1373 32.2525C23.8107 33.5501 21.1328 34.2891 18.2833 34.2891C15.4434 34.2891 12.7742 33.5552 10.4531 32.2657" stroke="#D7D7D7" stroke-miterlimit="10" stroke-linecap="round" stroke-linejoin="round"/>
<path d="M32.0275 9.36269C33.5892 11.8665 34.4921 14.8275 34.4921 18.0005C34.4921 23.0108 32.2408 27.4928 28.6992 30.4805" stroke="#D7D7D7" stroke-miterlimit="10" stroke-linecap="round" stroke-linejoin="round"/>
<path d="M28.4375 5.30583C29.0373 5.79091 29.6021 6.3181 30.1273 6.88281" stroke="#D7D7D7" stroke-miterlimit="10" stroke-linecap="round" stroke-linejoin="round"/>
<path d="M10.5547 3.68359C12.852 2.42886 15.485 1.71607 18.2836 1.71607C21.0104 1.71607 23.58 2.39276 25.835 3.5881" stroke="#D7D7D7" stroke-miterlimit="10" stroke-linecap="round" stroke-linejoin="round"/>
<path d="M19.6406 7.40625C21.4662 6.27019 23.4772 5.37728 25.6383 4.78125" stroke="#D7D7D7" stroke-miterlimit="10" stroke-linecap="round" stroke-linejoin="round"/>
<path d="M13 13.6875C14.1678 12.0303 15.5532 10.5259 17.1249 9.22165" stroke="#D7D7D7" stroke-miterlimit="10" stroke-linecap="round" stroke-linejoin="round"/>
<path d="M8.94557 29.8164C8.36212 25.0464 9.28456 20.3903 11.3682 16.3724" stroke="#D7D7D7" stroke-miterlimit="10" stroke-linecap="round" stroke-linejoin="round"/>
<path d="M16.9244 7.40625C15.0371 6.23177 12.9517 5.31719 10.707 4.72178" stroke="#D7D7D7" stroke-miterlimit="10" stroke-linecap="round" stroke-linejoin="round"/>
<path d="M25.7937 17.6094C24.3518 14.3727 22.1796 11.4933 19.4415 9.22134" stroke="#D7D7D7" stroke-miterlimit="10" stroke-linecap="round" stroke-linejoin="round"/>
<path d="M27.5448 23.6289C27.3909 22.5881 27.1654 21.5582 26.8711 20.5482" stroke="#D7D7D7" stroke-miterlimit="10" stroke-linecap="round" stroke-linejoin="round"/>
<path d="M27.6094 29.8945C27.7449 28.8147 27.8052 27.7256 27.7883 26.6373" stroke="#D7D7D7" stroke-miterlimit="10" stroke-linecap="round" stroke-linejoin="round"/>
<path d="M10.6596 14.7034C8.32468 14.6915 5.95459 14.9421 3.58594 15.4766" stroke="#D7D7D7" stroke-miterlimit="10" stroke-linecap="round" stroke-linejoin="round"/>
<path d="M25.0338 18.293C21.5577 16.4706 17.7386 15.2943 13.7656 14.8751" stroke="#D7D7D7" stroke-miterlimit="10" stroke-linecap="round" stroke-linejoin="round"/>
<path d="M33.1805 24.4219C31.5302 22.6987 29.6958 21.175 27.7188 19.8752" stroke="#D7D7D7" stroke-miterlimit="10" stroke-linecap="round" stroke-linejoin="round"/>
<path d="M27.1719 17.6992C28.7008 15.2381 29.9063 12.5411 30.7227 9.66234" stroke="#D7D7D7" stroke-miterlimit="10" stroke-linecap="round" stroke-linejoin="round"/>
<path d="M10.6562 30.8945C16.5159 28.8737 21.6436 25.1529 25.3967 20.2623" stroke="#D7D7D7" stroke-miterlimit="10" stroke-linecap="round" stroke-linejoin="round"/>
<path d="M18.2813 9.74219C17.4218 9.74219 16.7227 9.03959 16.7227 8.17587C16.7227 7.31222 17.4218 6.60962 18.2813 6.60962C19.1408 6.60962 19.84 7.31222 19.84 8.17587C19.84 9.03959 19.1408 9.74219 18.2813 9.74219Z" stroke="#D7D7D7" stroke-miterlimit="10" stroke-linecap="round" stroke-linejoin="round"/>
<path d="M12.2149 16.625C11.3554 16.625 10.6562 15.9223 10.6562 15.0587C10.6562 14.195 11.3554 13.4924 12.2149 13.4924C13.0744 13.4924 13.7736 14.195 13.7736 15.0587C13.7736 15.9223 13.0744 16.625 12.2149 16.625Z" stroke="#D7D7D7" stroke-miterlimit="10" stroke-linecap="round" stroke-linejoin="round"/>
<path d="M26.3946 20.625C25.5351 20.625 24.8359 19.9223 24.8359 19.0587C24.8359 18.195 25.5351 17.4924 26.3946 17.4924C27.2541 17.4924 27.9533 18.195 27.9533 19.0587C27.9533 19.9223 27.2541 20.625 26.3946 20.625Z" stroke="#D7D7D7" stroke-miterlimit="10" stroke-linecap="round" stroke-linejoin="round"/>
<path d="M9.17585 32.9297C8.31637 32.9297 7.61719 32.2271 7.61719 31.3634C7.61719 30.4997 8.31637 29.7971 9.17585 29.7971C10.0353 29.7971 10.7346 30.4997 10.7346 31.3634C10.7346 32.2271 10.0353 32.9297 9.17585 32.9297Z" stroke="#D7D7D7" stroke-miterlimit="10" stroke-linecap="round" stroke-linejoin="round"/>
<path d="M27.4766 33.0195C26.6171 33.0195 25.918 32.3169 25.918 31.4532C25.918 30.5896 26.6171 29.8869 27.4766 29.8869C28.3361 29.8869 29.0354 30.5896 29.0354 31.4532C29.0354 32.3169 28.3361 33.0195 27.4766 33.0195Z" stroke="#D7D7D7" stroke-miterlimit="10" stroke-linecap="round" stroke-linejoin="round"/>
<path d="M31.1095 9.66406C30.25 9.66406 29.5508 8.9614 29.5508 8.09774C29.5508 7.23409 30.25 6.53143 31.1095 6.53143C31.969 6.53143 32.6682 7.23409 32.6682 8.09774C32.6682 8.9614 31.969 9.66406 31.1095 9.66406Z" stroke="#D7D7D7" stroke-miterlimit="10" stroke-linecap="round" stroke-linejoin="round"/>
<path d="M27.1524 5.98438C26.2929 5.98438 25.5938 5.28178 25.5938 4.41806C25.5938 3.5544 26.2929 2.85181 27.1524 2.85181C28.0119 2.85181 28.7111 3.5544 28.7111 4.41806C28.7111 5.28178 28.0119 5.98438 27.1524 5.98438Z" stroke="#D7D7D7" stroke-miterlimit="10" stroke-linecap="round" stroke-linejoin="round"/>
<path d="M9.17585 5.98438C8.31637 5.98438 7.61719 5.28178 7.61719 4.41806C7.61719 3.5544 8.31637 2.85181 9.17585 2.85181C10.0353 2.85181 10.7346 3.5544 10.7346 4.41806C10.7346 5.28178 10.0353 5.98438 9.17585 5.98438Z" stroke="#D7D7D7" stroke-miterlimit="10" stroke-linecap="round" stroke-linejoin="round"/>
<path d="M2.07429 17.4336C1.2148 17.4336 0.515625 16.731 0.515625 15.8673C0.515625 15.0036 1.2148 14.301 2.07429 14.301C2.93377 14.301 3.63295 15.0036 3.63295 15.8673C3.63295 16.731 2.93377 17.4336 2.07429 17.4336Z" stroke="#D7D7D7" stroke-miterlimit="10" stroke-linecap="round" stroke-linejoin="round"/>
</g>
</svg>
