<svg width="42" height="43" viewBox="0 0 42 43" fill="none" xmlns="http://www.w3.org/2000/svg">
<path d="M38.4918 20.7522H36.4402L34.4921 12.9112C34.1491 11.5309 32.9561 10.5818 31.6095 10.481C31.9766 9.96711 32.1935 9.33883 32.1935 8.66051C32.1935 6.929 30.7849 5.52036 29.0533 5.52036C27.3218 5.52036 25.9132 6.929 25.9132 8.66051C25.9132 10.3012 27.1783 11.6513 28.7842 11.7884C28.3872 12.3299 28.1566 12.9943 28.158 13.6962L26.0662 17.7691L21.6946 20.2724C21.0939 20.6163 20.7482 21.1843 20.7459 21.8308C20.7434 22.5226 21.1282 23.1946 21.7261 23.5427C22.2849 23.868 22.9498 23.8572 23.5504 23.5133L28.3274 20.7779C28.6759 20.5988 28.9542 20.3208 29.1327 19.9731L29.4625 19.3311L29.859 20.927C29.4382 21.1625 29.1527 21.6121 29.1527 22.1277V26.8938C29.1527 27.6522 29.7697 28.2693 30.5281 28.2693H31.0272V35.5122C31.0272 36.7945 32.0704 37.8379 33.3528 37.8379C34.6352 37.8379 35.6786 36.7946 35.6786 35.5122V28.2693H38.4918C39.2501 28.2693 39.8672 27.6522 39.8672 26.8938V22.1277C39.8672 21.3692 39.2501 20.7522 38.4918 20.7522ZM26.7336 8.66051C26.7336 7.38132 27.7742 6.34067 29.0534 6.34067C30.3326 6.34067 31.3733 7.3814 31.3733 8.66051C31.3733 9.93963 30.3326 10.9804 29.0534 10.9804C27.7742 10.9804 26.7336 9.93971 26.7336 8.66051ZM28.4031 19.5983C28.3023 19.7944 28.1447 19.951 27.9469 20.0511C27.9407 20.0543 27.9345 20.0576 27.9284 20.0611L23.1427 22.8015C22.7012 23.0543 22.3532 22.9586 22.1388 22.8338C21.7948 22.6336 21.5647 22.2317 21.5661 21.8337C21.567 21.5858 21.6607 21.2371 22.1022 20.9843L26.5794 18.4206C26.6483 18.3812 26.7042 18.3226 26.7405 18.252L28.935 13.9792C28.967 13.9167 28.9825 13.847 28.98 13.7768C28.9387 12.6495 29.702 11.6343 30.795 11.3627C31.4126 11.2092 32.0556 11.307 32.6055 11.6379C33.1552 11.9689 33.5425 12.4914 33.696 13.109L36.0444 22.5614C36.1665 23.0529 35.9803 23.3603 35.8025 23.5317C35.5172 23.8068 35.0697 23.9181 34.6887 23.8085C34.4514 23.7402 34.143 23.5557 34.0208 23.0641L31.9604 14.7708C31.9057 14.5508 31.6833 14.4168 31.4634 14.4716C31.2436 14.5262 31.1096 14.7487 31.1642 14.9686L32.6012 20.7522H30.6608L29.9951 18.0724C29.9951 18.0724 29.995 18.0723 29.995 18.0722L29.5604 16.3231C29.5057 16.1032 29.2833 15.9691 29.0634 16.0239C28.8436 16.0785 28.7096 16.301 28.7643 16.5208L29.1618 18.1209L28.4031 19.5983ZM34.8582 35.5121C34.8582 36.3422 34.1829 37.0175 33.3528 37.0175C32.5227 37.0175 31.8474 36.3422 31.8474 35.5121V28.2692H34.8582V35.5121ZM39.0469 26.8938C39.0469 27.1998 38.7978 27.4489 38.4918 27.4489H30.528C30.222 27.4489 29.9729 27.1998 29.9729 26.8938V22.1276C29.9729 21.8214 30.222 21.5724 30.528 21.5724H32.805L33.2247 23.2617C33.3911 23.9318 33.8422 24.4184 34.462 24.5966C34.6348 24.6464 34.8136 24.6705 34.9922 24.6705C35.4989 24.6705 36.0045 24.4763 36.3719 24.1221C36.8362 23.6744 37.007 23.0335 36.8405 22.3634L36.6439 21.5724H38.4918C38.7978 21.5724 39.0469 21.8214 39.0469 22.1276V26.8938ZM11.472 21.5142H10.3681L10.9105 19.3311L11.2403 19.9731C11.4188 20.3208 11.6972 20.5988 12.0456 20.7779L16.8226 23.5134C17.4232 23.8573 18.0882 23.8681 18.6468 23.5429C19.2448 23.1948 19.6295 22.5228 19.627 21.8309C19.6247 21.1844 19.279 20.6164 18.6784 20.2725L14.3175 17.7754L11.7877 12.0963C11.655 11.7985 11.4549 11.5305 11.2018 11.3005C12.4818 10.9039 13.4142 9.70903 13.4142 8.30031C13.4142 6.56888 12.0056 5.16016 10.2741 5.16016C8.54257 5.16016 7.13393 6.5688 7.13393 8.30031C7.13393 9.20421 7.51833 10.0197 8.13168 10.5932C7.0569 10.8971 6.16891 11.752 5.88082 12.9114L3.97474 20.5834C3.89854 20.8902 3.87097 21.2039 3.88738 21.5142H3.50823C2.74985 21.5142 2.13281 22.1312 2.13281 22.8896V27.6558C2.13281 28.4141 2.74985 29.0312 3.50823 29.0312H4.6944V35.5121C4.6944 36.7945 5.73768 37.8378 7.02007 37.8378C8.30238 37.8378 9.34574 36.7945 9.34574 35.5121V29.0312H11.4719C12.2303 29.0312 12.8473 28.4141 12.8473 27.6558V22.8896C12.8474 22.1312 12.2304 21.5142 11.472 21.5142ZM7.95432 8.30015C7.95432 7.02095 8.99497 5.9803 10.2742 5.9803C11.5534 5.9803 12.594 7.02095 12.594 8.30015C12.594 9.57934 11.5534 10.62 10.2742 10.62C8.99497 10.62 7.95432 9.57934 7.95432 8.30015ZM3.50823 28.2109C3.20217 28.2109 2.95312 27.9618 2.95312 27.6558V22.8896C2.95312 22.5835 3.20217 22.3345 3.50823 22.3345H4.03782C4.17326 22.7572 4.39458 23.1536 4.6944 23.4927V28.2109H3.50823V28.2109ZM8.66677 23.1603C8.57702 23.2382 8.52543 23.3512 8.52543 23.47V35.5121C8.52543 36.3422 7.85014 37.0175 7.02007 37.0175C6.19 37.0175 5.51471 36.3422 5.51471 35.5121V23.3312C5.51471 23.2234 5.4723 23.12 5.39667 23.0433C4.81146 22.4497 4.5716 21.583 4.77086 20.7812L6.67702 13.109C6.8305 12.4914 7.21777 11.9689 7.76754 11.6379C8.14759 11.4091 8.57202 11.2918 9.00186 11.2918C9.1939 11.2918 9.38716 11.3153 9.57789 11.3627C10.2715 11.5351 10.8175 11.934 11.0384 12.43L13.6227 18.2316C13.6581 18.3112 13.718 18.3774 13.7936 18.4206L18.2707 20.9843C18.7121 21.2371 18.8058 21.5858 18.8067 21.8337C18.8081 22.2318 18.578 22.6336 18.2341 22.8338C18.0196 22.9586 17.6715 23.0542 17.2302 22.8015L12.4446 20.0611C12.4385 20.0577 12.4323 20.0543 12.4261 20.0511C12.2284 19.951 12.0707 19.7944 11.9699 19.5983L11.141 17.9843C11.141 17.9843 11.1409 17.9841 11.1409 17.984L9.74802 15.2718C9.6445 15.0703 9.39725 14.9909 9.19579 15.0943C8.99423 15.1978 8.91483 15.4451 9.01827 15.6465L10.3409 18.2217L9.41809 21.9357C9.29947 22.4131 9.03968 22.8365 8.66677 23.1603ZM12.0271 27.6558C12.0271 27.9618 11.778 28.2109 11.472 28.2109H9.34582V23.6496C9.72161 23.2825 9.99813 22.8335 10.1569 22.3344H11.472C11.778 22.3344 12.0271 22.5834 12.0271 22.8895V27.6558ZM20.4783 25.0024C17.2039 25.0024 14.5401 27.6663 14.5401 30.9406C14.5401 34.2149 17.204 36.8788 20.4783 36.8788C23.7526 36.8788 26.4164 34.2149 26.4164 30.9406C26.4164 27.6663 23.7526 25.0024 20.4783 25.0024ZM20.4783 36.0585C17.6563 36.0585 15.3604 33.7626 15.3604 30.9406C15.3604 28.1186 17.6563 25.8227 20.4783 25.8227C23.3002 25.8227 25.5961 28.1186 25.5961 30.9406C25.5961 33.7626 23.3003 36.0585 20.4783 36.0585ZM23.4627 28.8542C23.6229 29.0144 23.6229 29.2741 23.4627 29.4343L19.8701 33.0268C19.79 33.1069 19.685 33.1469 19.58 33.1469C19.475 33.1469 19.3701 33.1069 19.29 33.0268L17.4937 31.2306C17.3335 31.0704 17.3334 30.8107 17.4937 30.6505C17.6539 30.4904 17.9135 30.4904 18.0737 30.6505L19.58 32.1568L22.8825 28.8542C23.043 28.6941 23.3026 28.6942 23.4627 28.8542Z" fill="#D7D7D7"/>
</svg>
