<svg width="72" height="72" viewBox="0 0 72 72" fill="none" xmlns="http://www.w3.org/2000/svg">
<path d="M71.1838 42.5766L63.002 22.3621C62.7511 21.7402 62.282 21.2602 61.6602 20.9984C61.0384 20.7475 60.3511 20.7584 59.7402 21.0311L53.3693 23.8675C52.2893 24.3257 51.7111 25.5039 51.9402 26.6275L50.2493 27.5766C49.682 27.9039 48.9947 28.0239 48.3293 27.9366L36.5802 26.2021C34.5293 25.9075 32.4238 26.5839 30.9402 28.013L30.0784 28.8421H23.5547C23.2602 28.8421 22.9656 28.733 22.7475 28.5366L22.1693 28.0457C22.5729 27.053 22.3002 25.8966 21.4275 25.2093L16.4966 21.3148C15.9729 20.9002 15.3184 20.7148 14.6529 20.813C13.9984 20.9002 13.3984 21.2602 13.0056 21.7839L1.12565 37.8857C0.340193 38.9439 0.525647 40.4275 1.57292 41.2675L6.49292 45.1511C6.94019 45.5002 7.46383 45.6748 8.00928 45.6748C8.11837 45.6748 8.23837 45.6639 8.34747 45.653C9.00201 45.5657 9.5911 45.2166 9.98383 44.6712L10.0275 44.6166L10.7366 45.1511C11.1511 45.4457 11.3911 45.9475 11.3911 46.4711V49.4057L9.55837 51.7621C7.92201 53.8893 8.29292 56.9548 10.4093 58.5911C11.2711 59.2675 12.3184 59.6275 13.3984 59.6275C13.5947 59.6275 13.802 59.6166 13.9984 59.5948C14.2166 59.5621 14.4238 59.5075 14.6311 59.453C14.6311 59.5184 14.6202 59.573 14.6202 59.6384C14.6202 61.0348 15.2529 62.3439 16.3438 63.2384C17.1947 63.9148 18.2202 64.253 19.2347 64.253C19.8675 64.253 20.5002 64.1111 21.0893 63.8602V63.9148C21.242 65.0602 21.842 66.0748 22.7147 66.7184L22.9111 66.8711C23.6529 67.4166 24.5366 67.7111 25.442 67.7111C25.6493 67.7111 25.8566 67.7002 26.0747 67.6675C26.5438 67.6021 26.9693 67.4384 27.3838 67.2311C27.6129 68.3984 28.2784 69.4021 29.2711 70.0348L29.4129 70.133C30.122 70.6021 30.9402 70.8421 31.7693 70.8421C32.0747 70.8421 32.3693 70.8093 32.6747 70.7439C33.8202 70.5039 34.7911 69.8275 35.4347 68.8457L35.6202 68.5621C36.3947 69.1511 37.322 69.4566 38.3147 69.4566C39.482 69.4566 40.6275 68.9766 41.4566 68.1584C42.362 67.253 42.842 65.9875 42.7547 64.7111C42.7547 64.6348 42.7438 64.5475 42.7329 64.4711C44.0093 64.6566 45.3511 64.253 46.322 63.2821C47.1947 62.4093 47.642 61.1875 47.5438 59.9548C47.5329 59.8021 47.5111 59.6493 47.4784 59.4966C48.9293 59.5839 50.3584 59.0057 51.3402 57.8384C52.1802 56.8457 52.5729 55.5366 52.4093 54.2493C52.3984 54.1511 52.3875 54.0639 52.3656 53.9657C53.6856 54.1075 55.0275 53.6493 56.0093 52.6893C57.0893 51.6093 57.4929 50.0821 57.1984 48.6421C57.2529 48.6311 57.3075 48.6421 57.362 48.6312L60.8747 48.1402C61.322 48.5439 61.922 48.773 62.522 48.773C62.8602 48.773 63.1984 48.7075 63.5147 48.5548L69.9075 45.7293C71.1075 45.2057 71.6747 43.8093 71.1838 42.5766ZM8.08565 43.7984C7.92201 43.8202 7.76928 43.7766 7.64928 43.6784L2.7511 39.8057C2.5111 39.6093 2.45656 39.2602 2.64201 39.0093L14.5111 22.8748C14.6311 22.7111 14.7947 22.6675 14.8929 22.6566H14.9693C15.0675 22.6566 15.1984 22.6784 15.3184 22.7766L20.2602 26.6711C20.5002 26.8566 20.5438 27.2057 20.3693 27.4348L20.2166 27.6421C20.2056 27.653 20.1947 27.6639 20.1838 27.6748L13.3547 36.9257C13.3438 36.9366 13.3438 36.9366 13.3329 36.9475L12.0347 38.7148L9.05656 42.7511C9.04565 42.7621 9.04565 42.773 9.04565 42.773L8.45656 43.5802C8.34747 43.733 8.19474 43.7875 8.08565 43.7984ZM13.7802 57.7293C12.9947 57.8275 12.2093 57.6093 11.5766 57.1184C10.2893 56.1148 10.0493 54.2275 11.0638 52.9184L14.5766 48.3911C15.1656 47.6275 16.0493 47.2348 16.9438 47.2348C17.5766 47.2348 18.2202 47.4421 18.7656 47.8566C19.4966 48.4348 19.922 49.2966 19.922 50.2239C19.922 50.8893 19.7038 51.5221 19.2893 52.0675L15.7766 56.5948C15.2747 57.2275 14.5656 57.6311 13.7802 57.7293ZM17.5329 61.7766C16.8784 61.2421 16.5075 60.4675 16.5075 59.6384C16.5075 59.0384 16.7147 58.4493 17.1184 57.9366L20.6202 53.4202C21.0675 52.8312 21.722 52.4711 22.4529 52.3839C22.562 52.3621 22.6711 52.3621 22.7693 52.3621C23.3911 52.3621 24.002 52.5802 24.5693 53.0384C25.7475 53.9875 25.9329 55.7221 24.9838 56.9002L21.3947 61.373C20.4456 62.5293 18.7111 62.7148 17.5329 61.7766ZM25.7911 65.8021C25.1584 65.8893 24.5366 65.7366 24.0893 65.4093L23.9038 65.2566C23.3802 64.8748 23.0529 64.3075 22.9656 63.6639C22.8784 63.0093 23.0638 62.3657 23.4675 61.853L26.1293 58.5584C26.5875 57.9802 27.2856 57.6748 27.9838 57.6748C28.4747 57.6748 28.9766 57.8275 29.3911 58.1439C29.9911 58.5911 30.3402 59.2893 30.3402 60.0421C30.3402 60.533 30.1984 60.9911 29.9256 61.3839C29.9038 61.4057 29.8929 61.4384 29.8711 61.4711C29.8602 61.4821 29.8602 61.493 29.8493 61.493L29.8056 61.5584L27.3293 64.8748C26.9802 65.3875 26.4238 65.7148 25.7911 65.8021ZM35.0965 65.8784L33.842 67.8311C33.482 68.3875 32.9256 68.7693 32.2711 68.9111C31.6275 69.0421 30.9729 68.9221 30.4384 68.573L30.2966 68.4748C29.7184 68.1039 29.3366 67.5257 29.2166 66.8602C29.0966 66.1948 29.2384 65.5293 29.642 64.973C30.2966 64.1111 31.0384 63.1511 31.3329 62.7911C31.3875 62.7366 31.442 62.6711 31.4966 62.6275C31.5075 62.6275 31.5075 62.6166 31.5075 62.6166C31.5184 62.6057 31.5402 62.5948 31.5511 62.5839C31.6056 62.5402 31.6493 62.4966 31.7366 62.4421C32.5547 61.9511 33.5802 61.9511 34.3766 62.4639C35.0747 62.9111 35.5002 63.6966 35.5002 64.5475C35.4893 65.0275 35.3584 65.4857 35.0965 65.8784ZM54.6784 51.3584C53.7838 52.2421 52.3329 52.3511 51.3293 51.6202L45.0566 46.9839L42.6129 45.173C42.1984 44.8675 41.6093 44.9548 41.2929 45.3693C40.9875 45.7839 41.0747 46.373 41.4893 46.6893L45.7656 49.853L49.3875 52.5366C50.0202 53.0057 50.4238 53.693 50.522 54.4784C50.6202 55.2639 50.3911 56.0275 49.8784 56.6384C48.9402 57.7511 47.282 57.9584 46.0929 57.1184L38.5766 51.7402C38.1511 51.4348 37.562 51.533 37.2675 51.9584C36.962 52.3839 37.0602 52.973 37.4856 53.2675L44.6747 58.4057C45.2311 58.8093 45.5802 59.4311 45.6456 60.1075C45.7002 60.7948 45.4602 61.4602 44.9693 61.9511C44.1511 62.7802 42.8311 62.8566 41.9038 62.1584L34.8129 56.6384C34.3984 56.3221 33.8093 56.3875 33.4929 56.8021C33.1766 57.2057 33.242 57.8057 33.6456 58.1221L39.842 62.9657C40.4311 63.4239 40.802 64.1111 40.8456 64.853C40.9002 65.6057 40.6275 66.3148 40.0929 66.8493C39.2202 67.7221 37.7475 67.8202 36.7656 67.1111C36.7656 67.1111 36.7111 67.0457 36.6347 66.9693L36.6566 66.9366C37.1147 66.2384 37.3547 65.4202 37.3547 64.5584C37.3547 63.0639 36.6129 61.7002 35.3693 60.893C34.4202 60.2821 33.2856 60.0966 32.2056 60.293C32.2056 60.2166 32.2166 60.1402 32.2166 60.0639C32.2166 58.7002 31.5947 57.4566 30.5147 56.6493C29.5766 55.9511 28.4529 55.6893 27.3838 55.8421C27.602 54.2711 27.0238 52.6239 25.6602 51.5221C24.6893 50.7257 23.4566 50.3766 22.2129 50.5184C22.0493 50.5402 21.8966 50.5839 21.7438 50.6166C21.7547 50.4857 21.7766 50.3657 21.7766 50.2348C21.7766 48.7184 21.1002 47.3221 19.9002 46.3839C18.1002 44.9875 15.6238 45.0639 13.9002 46.4166C13.9002 46.4057 13.9002 46.4057 13.9111 46.3948C13.8893 46.4166 13.8675 46.4384 13.8456 46.4493C13.7366 46.5366 13.6275 46.6457 13.5293 46.7439C13.442 46.8311 13.3438 46.9075 13.2566 47.0057V46.4821C13.2566 45.3475 12.722 44.2893 11.8384 43.6457L11.1184 43.1111L12.4929 41.2457L14.2275 38.8893L14.7729 38.1584C14.8056 38.1257 14.8275 38.093 14.8602 38.0602L21.0893 29.6057L21.4929 29.9439C22.0493 30.4348 22.7802 30.7075 23.5329 30.7075H28.0929L25.4747 33.2166C24.8638 33.8057 24.5256 34.6021 24.5256 35.453C24.5256 36.6748 25.202 37.7548 26.3038 38.2675C28.9875 39.5548 32.162 39.4893 34.7911 38.1039L35.9256 37.5148C36.9947 36.9475 38.3038 37.0784 39.2529 37.8421L50.3256 46.7111C50.9693 47.213 51.6456 47.6275 52.3438 47.933C52.5729 48.0311 52.8238 48.1293 53.042 48.2057C53.2384 48.2821 53.4456 48.3475 53.6202 48.3911C53.8602 48.4675 54.1002 48.5221 54.3075 48.5548C54.5911 48.6093 54.8638 48.653 55.0929 48.6639C55.202 48.6748 55.3002 48.6748 55.4093 48.6857C55.3656 48.6966 55.3329 48.7075 55.2893 48.7184C55.5947 49.6239 55.3765 50.6602 54.6784 51.3584ZM57.1002 46.7766C56.7402 46.8202 56.3475 46.8421 55.9002 46.8311C55.7147 46.8311 55.5402 46.8202 55.2893 46.7875C55.0711 46.7766 54.8747 46.733 54.6347 46.6893C54.482 46.6675 54.3293 46.6348 54.1329 46.5693C53.9802 46.5366 53.8384 46.4821 53.6966 46.4275C53.5002 46.3621 53.2929 46.2748 53.1075 46.1984C52.562 45.9584 52.0166 45.6311 51.5038 45.2275L40.9984 36.8057L40.4311 36.3584C39.5366 35.6384 38.4456 35.2675 37.3438 35.2675C36.5584 35.2675 35.7729 35.453 35.0638 35.8348L33.9293 36.4239C31.8238 37.5366 29.282 37.5911 27.1329 36.5548C26.6202 36.3148 26.4347 35.8239 26.4347 35.4421C26.4347 35.213 26.5002 34.8639 26.8056 34.5693L32.2493 29.3548C33.3184 28.3293 34.8347 27.8384 36.3075 28.0566L48.0675 29.7911C49.1475 29.9439 50.2602 29.7366 51.1766 29.213L52.6166 28.4057L54.9293 34.1221L59.9038 46.3839L57.1002 46.7766ZM69.1438 44.0275L62.7402 46.853C62.4893 46.9621 62.1838 46.8748 61.9984 46.5584L55.1911 29.7475L54.3075 27.5875L53.8056 26.3439C53.6856 26.0602 53.8166 25.733 54.1111 25.6021L60.5038 22.7657C60.6456 22.7002 60.8093 22.7002 60.9511 22.7548C61.0929 22.8093 61.202 22.9184 61.2566 23.0711L69.4384 43.2966C69.5475 43.5693 69.4165 43.8966 69.1438 44.0275Z" fill="url(#paint0_linear_789_73)"/>
<path d="M36.0038 23.5847C42.1892 23.5847 47.2183 18.5556 47.2183 12.3701C47.2183 6.18468 42.1892 1.14468 36.0038 1.14468C29.8183 1.14468 24.7783 6.17378 24.7783 12.3701C24.7892 18.5556 29.8183 23.5847 36.0038 23.5847ZM36.0038 3.03196C41.1529 3.03196 45.3311 7.22105 45.3311 12.3701C45.3311 17.5192 41.142 21.6974 36.0038 21.6974C30.8547 21.6974 26.6656 17.5083 26.6656 12.3701C26.6656 7.22105 30.8547 3.03196 36.0038 3.03196Z" fill="url(#paint1_linear_789_73)"/>
<path d="M33.7116 15.7842C33.8862 15.9587 34.1262 16.0569 34.3771 16.0569C34.628 16.0569 34.868 15.9587 35.0426 15.7842L40.5298 10.2969C40.9007 9.92599 40.9007 9.3369 40.5298 8.96599C40.1589 8.59508 39.5698 8.59508 39.1989 8.96599L34.3771 13.7878L32.8171 12.2278C32.4462 11.8569 31.8571 11.8569 31.4862 12.2278C31.1153 12.5987 31.1153 13.1878 31.4862 13.5587L33.7116 15.7842Z" fill="url(#paint2_linear_789_73)"/>
<defs>
<linearGradient id="paint0_linear_789_73" x1="36.001" y1="20.7872" x2="36.001" y2="70.8421" gradientUnits="userSpaceOnUse">
<stop stop-color="#00B4F6"/>
<stop offset="0.1875" stop-color="#008EC2"/>
<stop offset="0.369792" stop-color="#6891D3"/>
<stop offset="0.526042" stop-color="#8482C9"/>
<stop offset="0.682292" stop-color="#B06BB8"/>
<stop offset="0.848958" stop-color="#BA66B4"/>
<stop offset="1" stop-color="#DE53A7"/>
</linearGradient>
<linearGradient id="paint1_linear_789_73" x1="35.9983" y1="1.14468" x2="35.9983" y2="23.5847" gradientUnits="userSpaceOnUse">
<stop stop-color="#00B4F6"/>
<stop offset="0.1875" stop-color="#008EC2"/>
<stop offset="0.369792" stop-color="#6891D3"/>
<stop offset="0.526042" stop-color="#8482C9"/>
<stop offset="0.682292" stop-color="#B06BB8"/>
<stop offset="0.848958" stop-color="#BA66B4"/>
<stop offset="1" stop-color="#DE53A7"/>
</linearGradient>
<linearGradient id="paint2_linear_789_73" x1="36.008" y1="8.68781" x2="36.008" y2="16.0569" gradientUnits="userSpaceOnUse">
<stop stop-color="#00B4F6"/>
<stop offset="0.1875" stop-color="#008EC2"/>
<stop offset="0.369792" stop-color="#6891D3"/>
<stop offset="0.526042" stop-color="#8482C9"/>
<stop offset="0.682292" stop-color="#B06BB8"/>
<stop offset="0.848958" stop-color="#BA66B4"/>
<stop offset="1" stop-color="#DE53A7"/>
</linearGradient>
</defs>
</svg>
