<svg width="60" height="60" viewBox="0 0 60 60" fill="none" xmlns="http://www.w3.org/2000/svg">
<g clip-path="url(#clip0_789_78)">
<path d="M15.333 44.667C14.8755 44.2095 14.1337 44.2094 13.6756 44.667L0.343213 57.9994C-0.114404 58.457 -0.114404 59.1991 0.343213 59.6568C0.57208 59.8855 0.871963 59.9999 1.17185 59.9999C1.47173 59.9999 1.77173 59.8854 2.00048 59.6567L15.333 46.3243C15.7906 45.8668 15.7906 45.1246 15.333 44.667Z" fill="url(#paint0_linear_789_78)"/>
<path d="M21.9538 46.0352C21.4961 45.5775 20.7543 45.5775 20.2964 46.0352L9.64009 56.6915C9.18247 57.1491 9.18247 57.8911 9.64009 58.3489C9.86896 58.5777 10.1688 58.6921 10.4687 58.6921C10.7686 58.6921 11.0685 58.5777 11.2974 58.3489L21.9537 47.6925C22.4114 47.2348 22.4114 46.4928 21.9538 46.0352Z" fill="url(#paint1_linear_789_78)"/>
<path d="M27.6689 46.6527L22.5659 51.7558C22.1083 52.2134 22.1083 52.9554 22.5659 53.4132C22.7947 53.642 23.0946 53.7564 23.3945 53.7564C23.6944 53.7564 23.9943 53.642 24.2231 53.4132L29.3262 48.3101C29.7838 47.8525 29.7838 47.1105 29.3262 46.6527C28.8684 46.1951 28.1266 46.1951 27.6689 46.6527Z" fill="url(#paint2_linear_789_78)"/>
<path d="M2.47958 50.7027C2.77958 50.7027 3.07935 50.5884 3.30821 50.3595L13.9645 39.7032C14.4222 39.2456 14.4222 38.5035 13.9645 38.0458C13.5068 37.5882 12.765 37.5882 12.3072 38.0458L1.65083 48.7021C1.19321 49.1597 1.19321 49.9018 1.65083 50.3595C1.87981 50.5884 2.1797 50.7027 2.47958 50.7027Z" fill="url(#paint3_linear_789_78)"/>
<path d="M7.41513 37.7778C7.71513 37.7778 8.01489 37.6634 8.24376 37.4345L13.3468 32.3315C13.8044 31.8739 13.8044 31.1318 13.3468 30.6741C12.8891 30.2165 12.1473 30.2165 11.6894 30.6741L6.58638 35.7773C6.12876 36.2349 6.12876 36.9769 6.58638 37.4347C6.81524 37.6634 7.11513 37.7778 7.41513 37.7778Z" fill="url(#paint4_linear_789_78)"/>
<path d="M59.6568 0.343234C59.3863 0.0728823 59.0013 -0.0486412 58.6241 0.0179213L30.4009 5.00741C29.9707 5.08347 29.6184 5.39249 29.4872 5.80921C29.3559 6.22593 29.4674 6.68108 29.7763 6.98999L34.7561 11.9698L30.9055 15.8203C30.4479 16.2779 30.4479 17.02 30.9055 17.4777C31.3633 17.9353 32.105 17.9354 32.5629 17.4777L37.2422 12.7985C37.4619 12.5788 37.5854 12.2807 37.5854 11.9699C37.5854 11.6591 37.4619 11.361 37.2422 11.1412L33.0247 6.92378L57.3826 2.61773L53.0763 26.9754L48.8589 22.7579C48.4011 22.3003 47.6593 22.3003 47.2015 22.7579L31.2145 38.7451L21.255 28.7855L25.1051 24.9354C25.5627 24.4778 25.5627 23.7357 25.1051 23.2781C24.6474 22.8205 23.9056 22.8205 23.4477 23.2781L18.769 27.9568C18.3114 28.4146 18.3114 29.1565 18.769 29.6142L30.3859 41.2311C30.6058 41.4508 30.9038 41.5744 31.2145 41.5744C31.5253 41.5744 31.8233 41.4508 32.0432 41.2311L48.0301 25.2441L53.0099 30.2238C53.3189 30.5327 53.774 30.6439 54.1907 30.5129C54.6074 30.3816 54.9164 30.0294 54.9926 29.5992L59.982 1.37612C60.0486 0.999249 59.9271 0.61382 59.6568 0.343234Z" fill="url(#paint5_linear_789_78)"/>
<path d="M28.0054 21.5495C28.6525 21.5495 29.1772 21.0248 29.1772 20.3776C29.1772 19.7304 28.6525 19.2057 28.0054 19.2057H28.0044C27.3573 19.2057 26.833 19.7304 26.833 20.3776C26.833 21.0248 27.3581 21.5495 28.0054 21.5495Z" fill="url(#paint6_linear_789_78)"/>
</g>
<defs>
<linearGradient id="paint0_linear_789_78" x1="7.83811" y1="44.3238" x2="7.83811" y2="59.9999" gradientUnits="userSpaceOnUse">
<stop stop-color="#00B4F6"/>
<stop offset="0.1875" stop-color="#008EC2"/>
<stop offset="0.369792" stop-color="#6891D3"/>
<stop offset="0.526042" stop-color="#8482C9"/>
<stop offset="0.682292" stop-color="#B06BB8"/>
<stop offset="0.848958" stop-color="#BA66B4"/>
<stop offset="1" stop-color="#DE53A7"/>
</linearGradient>
<linearGradient id="paint1_linear_789_78" x1="15.7969" y1="45.6919" x2="15.7969" y2="58.6921" gradientUnits="userSpaceOnUse">
<stop stop-color="#00B4F6"/>
<stop offset="0.1875" stop-color="#008EC2"/>
<stop offset="0.369792" stop-color="#6891D3"/>
<stop offset="0.526042" stop-color="#8482C9"/>
<stop offset="0.682292" stop-color="#B06BB8"/>
<stop offset="0.848958" stop-color="#BA66B4"/>
<stop offset="1" stop-color="#DE53A7"/>
</linearGradient>
<linearGradient id="paint2_linear_789_78" x1="25.946" y1="46.3095" x2="25.946" y2="53.7564" gradientUnits="userSpaceOnUse">
<stop stop-color="#00B4F6"/>
<stop offset="0.1875" stop-color="#008EC2"/>
<stop offset="0.369792" stop-color="#6891D3"/>
<stop offset="0.526042" stop-color="#8482C9"/>
<stop offset="0.682292" stop-color="#B06BB8"/>
<stop offset="0.848958" stop-color="#BA66B4"/>
<stop offset="1" stop-color="#DE53A7"/>
</linearGradient>
<linearGradient id="paint3_linear_789_78" x1="7.80769" y1="37.7026" x2="7.80769" y2="50.7027" gradientUnits="userSpaceOnUse">
<stop stop-color="#00B4F6"/>
<stop offset="0.1875" stop-color="#008EC2"/>
<stop offset="0.369792" stop-color="#6891D3"/>
<stop offset="0.526042" stop-color="#8482C9"/>
<stop offset="0.682292" stop-color="#B06BB8"/>
<stop offset="0.848958" stop-color="#BA66B4"/>
<stop offset="1" stop-color="#DE53A7"/>
</linearGradient>
<linearGradient id="paint4_linear_789_78" x1="9.96659" y1="30.3309" x2="9.96659" y2="37.7778" gradientUnits="userSpaceOnUse">
<stop stop-color="#00B4F6"/>
<stop offset="0.1875" stop-color="#008EC2"/>
<stop offset="0.369792" stop-color="#6891D3"/>
<stop offset="0.526042" stop-color="#8482C9"/>
<stop offset="0.682292" stop-color="#B06BB8"/>
<stop offset="0.848958" stop-color="#BA66B4"/>
<stop offset="1" stop-color="#DE53A7"/>
</linearGradient>
<linearGradient id="paint5_linear_789_78" x1="39.2128" y1="3.05176e-05" x2="39.2128" y2="41.5744" gradientUnits="userSpaceOnUse">
<stop stop-color="#00B4F6"/>
<stop offset="0.1875" stop-color="#008EC2"/>
<stop offset="0.369792" stop-color="#6891D3"/>
<stop offset="0.526042" stop-color="#8482C9"/>
<stop offset="0.682292" stop-color="#B06BB8"/>
<stop offset="0.848958" stop-color="#BA66B4"/>
<stop offset="1" stop-color="#DE53A7"/>
</linearGradient>
<linearGradient id="paint6_linear_789_78" x1="28.0051" y1="19.2057" x2="28.0051" y2="21.5495" gradientUnits="userSpaceOnUse">
<stop stop-color="#00B4F6"/>
<stop offset="0.1875" stop-color="#008EC2"/>
<stop offset="0.369792" stop-color="#6891D3"/>
<stop offset="0.526042" stop-color="#8482C9"/>
<stop offset="0.682292" stop-color="#B06BB8"/>
<stop offset="0.848958" stop-color="#BA66B4"/>
<stop offset="1" stop-color="#DE53A7"/>
</linearGradient>
<clipPath id="clip0_789_78">
<rect width="60" height="60" fill="white"/>
</clipPath>
</defs>
</svg>
