<svg xmlns="http://www.w3.org/2000/svg" width="60" height="60" viewBox="0 0 60 60" fill="none">
  <g clip-path="url(#clip0_1185_998)">
    <path d="M29.7363 59.4726C46.1592 59.4726 59.4726 46.1592 59.4726 29.7363C59.4726 13.3134 46.1592 0 29.7363 0C13.3134 0 0 13.3134 0 29.7363C0 46.1592 13.3134 59.4726 29.7363 59.4726Z" fill="#004D66" fill-opacity="0.6"/>
    <path d="M47.5069 32.1301V44.3898H40.3991V32.9518C40.3991 30.0798 39.3728 28.1185 36.7993 28.1185C34.8354 28.1185 33.6687 29.4389 33.1534 30.7175C32.9663 31.1744 32.9181 31.8089 32.9181 32.4498V44.3893H25.8097C25.8097 44.3893 25.9051 25.017 25.8097 23.0117H32.9186V26.0411C32.9043 26.065 32.8842 26.0883 32.8714 26.1111H32.9186V26.0411C33.8632 24.5877 35.5478 22.5098 39.3246 22.5098C44.001 22.5098 47.5069 25.5651 47.5069 32.1301ZM18.3738 12.707C15.9423 12.707 14.3516 14.3031 14.3516 16.4001C14.3516 18.4525 15.8962 20.0947 18.2805 20.0947H18.3266C20.8058 20.0947 22.3473 18.4525 22.3473 16.4001C22.3001 14.3031 20.8058 12.707 18.3738 12.707ZM14.774 44.3898H21.8797V23.0117H14.774V44.3898Z" fill="white"/>
  </g>
  <defs>
    <clipPath id="clip0_1185_998">
      <rect width="59.4726" height="59.4726" fill="white"/>
    </clipPath>
  </defs>
</svg>